Chapter 4 How to… | kableExtra Cookbook
…
You might want to make changes to your tables that depend on features of your data that aren’t known in advance or can’t be hardcoded.

Let’s look at the comma_survey data set, which polled Americans on the oxford comma and other grammatical concepts. In particular, we’ll look at the education of those who care about the debate of whether “data” is a singular or plural noun:

library(fivethirtyeight)
library(tidyverse)

data_noun <- comma_survey %>%
  filter(!is.na(care_data)) %>%
  select(education, care_data)

data_noun

## # A tibble: 1,091 x 2
##    education                        care_data 
##    <ord>                            <ord>     
##  1 Bachelor degree                  Not much  
##  2 Graduate degree                  Not much  
##  3 <NA>                             Not at all
##  4 Less than high school degree     Some      
##  5 <NA>                             Not much  
##  6 Some college or Associate degree Some      
##  7 Some college or Associate degree Some      
##  8 Some college or Associate degree A lot     
##  9 Graduate degree                  Not much  
## 10 Bachelor degree                  Some      
## # … with 1,081 more rows
…
data_noun_percent <- data_noun %>%
  mutate(education = fct_explicit_na(education, na_level = "Education unknown")) %>%
  group_by(education, care_data) %>%
  summarise(n = n()) %>%
  mutate(
    prop = n / sum(n),
    percent = percent(prop)
  ) %>%
  ungroup() %>%
  select(-n)

data_noun_percent

## # A tibble: 24 x 4
##    education                        care_data    prop percent
##    <ord>                            <ord>       <dbl> <chr>  
##  1 Less than high school degree     Not at all 0.273  27.3%  
##  2 Less than high school degree     Not much   0.455  45.5%  
##  3 Less than high school degree     Some       0.182  18.2%  
##  4 Less than high school degree     A lot      0.0909 9.1%   
##  5 High school degree               Not at all 0.28   28.0%  
##  6 High school degree               Not much   0.34   34.0%  
##  7 High school degree               Some       0.3    30.0%  
##  8 High school degree               A lot      0.08   8.0%   
##  9 Some college or Associate degree Not at all 0.2    20.0%  
## 10 Some college or Associate degree Not much   0.403  40.3%  
## # … with 14 more rows
…
Now our code is more robust and can easily adapt to changes in the data (e.g., if there were additional responses).

We might want to do other things, too, like bold the cell with the highest percent for each of the levels of Education.

To do this, we can use cell_spec() to set values of percent to bold if they are the highest value of prop (the unformatted percent) for their level of education.

data_noun_bold_highest_prop <- data_noun_percent %>%
  group_by(education) %>%
  mutate(highest_prop = max(prop)) %>%
  mutate(percent = cell_spec(percent, format = "html", bold = prop == highest_prop))

data_noun_bold_highest_prop

## # A tibble: 24 x 5
## # Groups:   education [6]
##    education           care_data   prop percent                     highest_prop
##    <ord>               <ord>      <dbl> <chr>                              <dbl>
##  1 Less than high sch… Not at a… 0.273  "<span style=\"     \" >27…        0.455
##  2 Less than high sch… Not much  0.455  "<span style=\" font-weigh…        0.455
##  3 Less than high sch… Some      0.182  "<span style=\"     \" >18…        0.455
##  4 Less than high sch… A lot     0.0909 "<span style=\"     \" >9.…        0.455
##  5 High school degree  Not at a… 0.28   "<span style=\"     \" >28…        0.34 
##  6 High school degree  Not much  0.34   "<span style=\" font-weigh…        0.34 
##  7 High school degree  Some      0.3    "<span style=\"     \" >30…        0.34 
##  8 High school degree  A lot     0.08   "<span style=\"     \" >8.…        0.34 
##  9 Some college or As… Not at a… 0.2    "<span style=\"     \" >20…        0.403
## 10 Some college or As… Not much  0.403  "<span style=\" font-weigh…        0.403
## # … with 14 more rows
…
